Source File	Size	loadResources	load-configure	scan	loadDepInfo	loadInfo	load	generateSnapshots	checkR4R4B	generateNarratives	validate	loadLists	checkConformanceResources	checkConformanceResources2	checkConformanceResources3	generateLogicalMaps	validateExpressions	scanForUsageStats	checkURLsUnique	processProvenanceDetails	generate1	generate2	generateLogicals	makeDependencies	generateExampleZip	generateValidationPack	scanProfilesForR5	scanExamplesForR5
/fsh-generated/resources/ImplementationGuide-austrian-terminology-server.json	2956	-	0	0	0	0	0	0	4	656	0	0	0	0	0	0	0	1	0	0	87	182	0	0	0	4	0	1
input/resources/ConceptMap-elga-lebensmittelallergene-mapping.xml	40974	204	1	0	0	1	0	0	3	123	0	0	0	0	0	0	0	1	0	0	146	612	0	0	0	4	0	0
input/resources/CodeSystem-appc-anatomie.json	48060	147	0	0	0	0	0	0	3	186	0	0	1	0	0	0	0	1	0	0	90	1301	0	0	0	6	0	1
input/resources/ValueSet-appc-anatomie.json	202105	231	0	0	0	0	0	0	7	334	0	0	0	0	0	0	0	2	0	0	246	4346	0	1	0	13	0	3
